30-Day Mortality Rate of Cardiac Arrest Patients Admitted to CCU
…
study_subjects %>%
  collect() %>%
  mutate(ethnic_group = case_when(
    str_detect(ethnicity, "^ASIAN") ~ "ASIAN",
    str_detect(ethnicity, "^BLACK") ~ "BLACK",
    str_detect(ethnicity, "^HISPANIC") ~ "HISPANIC",
    str_detect(ethnicity, "^WHITE") ~ "WHITE",
    ethnicity %in% unknown_ethnicity ~ NA_character_,
    TRUE ~ NA_character_
  )) %>%
  select(subject_id, gender, ethnic_group) %>%
  print() -> study_subjects

## # A tibble: 190 x 3
##    subject_id gender ethnic_group
##         <int> <chr>  <chr>       
##  1        146 M      <NA>        
##  2        194 M      BLACK       
##  3        456 M      <NA>        
##  4        543 M      WHITE       
##  5        738 M      WHITE       
##  6       1359 M      WHITE       
##  7       1777 F      WHITE       
##  8       1970 M      WHITE       
##  9       2237 F      WHITE       
## 10       2280 M      ASIAN       
## #  with 180 more rows
…
most <- function(x) {
  if (all(is.na(x))) return(NA_character_)
  y <- table(x, useNA = "no")
  if (length(which(y == max(y))) > 1) return(NA_character_)
  return(names(y)[which.max(y)])
}

study_subjects %>%
  group_by(subject_id) %>%
  summarize(ethnic_group = most(ethnic_group)) %>%
  ungroup() %>%
  mutate(ethnic_group = ifelse(is.na(ethnic_group), "UNKNOWN", ethnic_group)) %>% 
  print() -> subject_ethnic_groups

## # A tibble: 185 x 2
##    subject_id ethnic_group
##         <int> <chr>       
##  1        146 UNKNOWN     
##  2        194 BLACK       
##  3        456 UNKNOWN     
##  4        543 WHITE       
##  5        738 WHITE       
##  6       1359 WHITE       
##  7       1777 WHITE       
##  8       1970 WHITE       
##  9       2237 WHITE       
## 10       2280 ASIAN       
## #  with 175 more rows

study_subjects %>%
  select(subject_id, gender) %>%
  left_join(subject_ethnic_groups, by = "subject_id") %>%
  distinct() %>%
  print() -> study_subjects

## # A tibble: 185 x 3
##    subject_id gender ethnic_group
##         <int> <chr>  <chr>       
##  1        146 M      UNKNOWN     
##  2        194 M      BLACK       
##  3        456 M      UNKNOWN     
##  4        543 M      WHITE       
##  5        738 M      WHITE       
##  6       1359 M      WHITE       
##  7       1777 F      WHITE       
##  8       1970 M      WHITE       
##  9       2237 F      WHITE       
## 10       2280 M      ASIAN       
## #  with 175 more rows
…
