Biostat 203B Homework 2
…
icu

## # A tibble: 61,532 x 12
##    ROW_ID SUBJECT_ID HADM_ID ICUSTAY_ID DBSOURCE FIRST_CAREUNIT LAST_CAREUNIT
##     <dbl>      <dbl>   <dbl>      <dbl> <chr>    <chr>          <chr>        
##  1    365        268  110404     280836 carevue  MICU           MICU         
##  2    366        269  106296     206613 carevue  MICU           MICU         
##  3    367        270  188028     220345 carevue  CCU            CCU          
##  4    368        271  173727     249196 carevue  MICU           SICU         
##  5    369        272  164716     210407 carevue  CCU            CCU          
##  6    370        273  158689     241507 carevue  MICU           MICU         
##  7    371        274  130546     254851 carevue  MICU           MICU         
##  8    372        275  129886     219649 carevue  CCU            CCU          
##  9    373        276  135156     206327 carevue  CCU            CCU          
## 10    374        277  171601     272866 carevue  NICU           NICU         
## #  with 61,522 more rows, and 5 more variables: FIRST_WARDID <dbl>,
## #   LAST_WARDID <dbl>, INTIME <dttm>, OUTTIME <dttm>, LOS <dbl>
…
